<svg width="16" height="16" viewBox="0 0 16 16" fill="none" xmlns="http://www.w3.org/2000/svg">
<path d="M4.9363 8.66016L8.46489 12.1888C8.72524 12.4491 8.72524 12.8712 8.46489 13.1316C8.20454 13.3919 7.78243 13.3919 7.52208 13.1316L2.85542 8.46489C2.59507 8.20454 2.59507 7.78243 2.85542 7.52208L7.52208 2.85542C7.78243 2.59507 8.20454 2.59507 8.46489 2.85542C8.72524 3.11577 8.72524 3.53788 8.46489 3.79823L4.9363 7.32682H12.6602C13.0283 7.32682 13.3268 7.6253 13.3268 7.99349C13.3268 8.36168 13.0283 8.66016 12.6602 8.66016H4.9363Z" fill="currentColor"/>
</svg>
