<svg width="24" height="24" viewBox="0 0 24 24" fill="none" xmlns="http://www.w3.org/2000/svg">
<rect x="3" y="8" width="18" height="2" rx="1" fill="black"/>
<rect x="3" y="14" width="18" height="2" rx="1" fill="black"/>
</svg>
