<svg width="20" height="20" viewBox="0 0 20 20" fill="none" xmlns="http://www.w3.org/2000/svg">
<path d="M2.23632 3.58491C1.88855 3.67277 1.65991 3.9953 1.65991 4.354V15.143C1.65991 15.4843 1.99489 15.7258 2.32669 15.646C4.66527 15.0829 7.25936 15.5297 9.15991 16.6701V4.58669C7.23484 3.43164 4.59824 2.98817 2.23632 3.58491ZM17.7502 3.58491C18.0979 3.67277 18.3266 3.9953 18.3266 4.354V15.143C18.3266 15.4843 17.9916 15.7258 17.6598 15.646C15.3212 15.0829 12.7271 15.5297 10.8266 16.6701V4.58669C12.7517 3.43164 15.3883 2.98817 17.7502 3.58491Z" fill="#A168F7"/>
</svg>
