<svg width="24" height="24" viewBox="0 0 24 24" fill="none" xmlns="http://www.w3.org/2000/svg">
<path d="M3 4.6C3 4.03995 3 3.75992 3.10899 3.54601C3.20487 3.35785 3.35785 3.20487 3.54601 3.10899C3.75992 3 4.03995 3 4.6 3H9.4C9.96005 3 10.2401 3 10.454 3.10899C10.6422 3.20487 10.7951 3.35785 10.891 3.54601C11 3.75992 11 4.03995 11 4.6V9.4C11 9.96005 11 10.2401 10.891 10.454C10.7951 10.6422 10.6422 10.7951 10.454 10.891C10.2401 11 9.96005 11 9.4 11H4.6C4.03995 11 3.75992 11 3.54601 10.891C3.35785 10.7951 3.20487 10.6422 3.10899 10.454C3 10.2401 3 9.96005 3 9.4V4.6Z" fill="#00AAFF"/>
<path d="M3 14.6C3 14.0399 3 13.7599 3.10899 13.546C3.20487 13.3578 3.35785 13.2049 3.54601 13.109C3.75992 13 4.03995 13 4.6 13H9.4C9.96005 13 10.2401 13 10.454 13.109C10.6422 13.2049 10.7951 13.3578 10.891 13.546C11 13.7599 11 14.0399 11 14.6V19.4C11 19.9601 11 20.2401 10.891 20.454C10.7951 20.6422 10.6422 20.7951 10.454 20.891C10.2401 21 9.96005 21 9.4 21H4.6C4.03995 21 3.75992 21 3.54601 20.891C3.35785 20.7951 3.20487 20.6422 3.10899 20.454C3 20.2401 3 19.9601 3 19.4V14.6Z" fill="#00AAFF"/>
<path d="M13 4.6C13 4.03995 13 3.75992 13.109 3.54601C13.2049 3.35785 13.3578 3.20487 13.546 3.10899C13.7599 3 14.0399 3 14.6 3H19.4C19.9601 3 20.2401 3 20.454 3.10899C20.6422 3.20487 20.7951 3.35785 20.891 3.54601C21 3.75992 21 4.03995 21 4.6V9.4C21 9.96005 21 10.2401 20.891 10.454C20.7951 10.6422 20.6422 10.7951 20.454 10.891C20.2401 11 19.9601 11 19.4 11H14.6C14.0399 11 13.7599 11 13.546 10.891C13.3578 10.7951 13.2049 10.6422 13.109 10.454C13 10.2401 13 9.96005 13 9.4V4.6Z" fill="#00AAFF"/>
<path d="M13 14.6C13 14.0399 13 13.7599 13.109 13.546C13.2049 13.3578 13.3578 13.2049 13.546 13.109C13.7599 13 14.0399 13 14.6 13H19.4C19.9601 13 20.2401 13 20.454 13.109C20.6422 13.2049 20.7951 13.3578 20.891 13.546C21 13.7599 21 14.0399 21 14.6V19.4C21 19.9601 21 20.2401 20.891 20.454C20.7951 20.6422 20.6422 20.7951 20.454 20.891C20.2401 21 19.9601 21 19.4 21H14.6C14.0399 21 13.7599 21 13.546 20.891C13.3578 20.7951 13.2049 20.6422 13.109 20.454C13 20.2401 13 19.9601 13 19.4V14.6Z" fill="#00AAFF"/>
</svg>