<svg width="72" height="72" viewBox="0 0 72 72" fill="none" xmlns="http://www.w3.org/2000/svg">
<path d="M45.5744 65.3607C56.72 65.3607 65.7552 56.3254 65.7552 45.1799C65.7552 34.0343 56.72 24.999 45.5744 24.999C34.4288 24.999 25.3936 34.0343 25.3936 45.1799C25.3936 56.3254 34.4288 65.3607 45.5744 65.3607Z" fill="#006999"/>
<path d="M39.8769 6.63867H8.45811C7.19186 6.63867 6.24219 7.66749 6.24219 8.8546V34.971C6.24219 36.2372 7.27101 37.1869 8.45811 37.1869H19.3796C19.9335 37.1869 20.4084 37.3452 20.8041 37.7409L28.9555 44.6262C30.3801 45.8133 32.596 44.8636 32.596 42.9642V39.482C32.596 38.2158 33.6249 37.2661 34.812 37.2661H39.8769C41.1432 37.2661 42.0929 36.2373 42.0929 35.0502V8.93374C42.0929 7.66749 41.1432 6.63867 39.8769 6.63867Z" fill="#00AAFF"/>
<path d="M32.2007 14.0783C30.3805 12.8912 28.0063 12.9703 26.2652 14.1575C25.5529 14.6323 24.999 15.2654 24.6033 15.8986C24.2867 16.4525 23.4161 16.4525 23.0996 15.8986C22.7039 15.2654 22.1499 14.6323 21.4376 14.1575C19.6965 12.9703 17.2432 12.8912 15.5021 14.0783C12.4948 16.0568 12.2574 20.093 14.6316 22.4672L22.1499 29.9856C23.0996 30.9353 24.6033 30.9353 25.553 29.9856L33.0713 22.4672C35.5247 20.093 35.2081 16.0568 32.2007 14.0783Z" fill="white"/>
<mask id="mask0_2186_16547" style="mask-type:alpha" maskUnits="userSpaceOnUse" x="25" y="24" width="41" height="42">
<path d="M45.5739 65.3607C56.7195 65.3607 65.7548 56.3254 65.7548 45.1799C65.7548 34.0343 56.7195 24.999 45.5739 24.999C34.4283 24.999 25.3931 34.0343 25.3931 45.1799C25.3931 56.3254 34.4283 65.3607 45.5739 65.3607Z" fill="#006999"/>
</mask>
<g mask="url(#mask0_2186_16547)">
<path d="M65.6756 36.8705L64.1719 38.3742C63.0639 39.4821 61.3228 39.4821 60.2148 38.3742L55.7038 33.8632C54.5958 32.7552 52.8547 32.7552 51.7468 33.8632L43.2787 42.3312C42.1708 43.4392 42.1708 45.1803 43.2787 46.2882L44.7033 47.7128C45.8113 48.8208 45.8113 50.5619 44.7033 51.6698L43.5953 52.7778C42.4873 53.8857 42.4873 55.6268 43.5953 56.7348L44.4658 57.6054C45.5738 58.7133 47.3149 58.7133 48.4229 57.6054C49.5308 56.4974 51.2719 56.4974 52.3799 57.6054L56.6535 61.8789C57.9198 63.1452 60.0566 62.9078 61.0062 61.4041L71.9276 44.0723C72.4816 43.2809 72.4816 42.2521 72.0859 41.3816L70.1865 37.5828C69.3951 35.9208 67.1001 35.5251 65.6756 36.8705Z" fill="#00AAFF"/>
<path d="M26.1846 56.26L29.3502 53.0944C29.825 52.6196 30.5373 52.6196 31.0121 53.0944L33.4655 55.5478C33.9404 56.0226 34.6526 56.0226 35.1274 55.5478C35.6023 55.0729 36.3146 55.0729 36.7894 55.5478L41.1422 59.9005C41.617 60.3753 41.617 61.0876 41.1422 61.5625L34.0195 68.6851" fill="#00AAFF"/>
</g>
</svg>
